<?xml version="1.0" encoding="UTF-8"?>
<svg width="53px" height="34px" viewBox="0 0 53 34" version="1.1" xmlns="http://www.w3.org/2000/svg" xmlns:xlink="http://www.w3.org/1999/xlink">
    <!-- Generator: Sketch 48 (47235) - http://www.bohemiancoding.com/sketch -->
    <title>Group 2 Copy</title>
    <desc>Created with Sketch.</desc>
    <defs></defs>
    <g id="home" stroke="none" stroke-width="1" fill="none" fill-rule="evenodd" transform="translate(-60.000000, -298.000000)">
        <g id="Page-1" transform="translate(62.000000, 299.000000)" stroke="#FFFFFF" stroke-width="2">
            <g id="Group-2-Copy" transform="translate(25.500000, 16.000000) scale(-1, 1) translate(-25.500000, -16.000000) ">
                <polyline id="Stroke-1" points="34 0 51 16.0000995 34 32"></polyline>
                <path d="M0,16 L50,16" id="Stroke-3"></path>
            </g>
        </g>
    </g>
</svg>